<svg xmlns="http://www.w3.org/2000/svg" width="48.311" height="48.311" viewBox="0 0 48.311 48.311">
    <defs>
        <style>.a{fill:#f78234;}.b{fill:#fff;}</style>
    </defs>
    <g transform="translate(1707.616 -2905.843)">
        <path class="a"
              d="M-1659.305,2930a24.155,24.155,0,0,1-24.156,24.156A24.155,24.155,0,0,1-1707.616,2930a24.155,24.155,0,0,1,24.155-24.155A24.155,24.155,0,0,1-1659.305,2930Z"/>
        <path class="b"
              d="M-1677.6,2933.533l-3.092-.688v-.977a4.741,4.741,0,0,0,1.969-3.687,5.747,5.747,0,0,0,1.59-3.979v-1.72a1.981,1.981,0,0,0-1.716-1.96,4.959,4.959,0,0,0-4.461-2.786h-.665a5.85,5.85,0,0,0-3.57,1.226,5.772,5.772,0,0,0-2.245,4.59v.65a5.761,5.761,0,0,0,1.59,3.981,4.743,4.743,0,0,0,1.97,3.687v.975l-3.093.688a5.111,5.111,0,0,0-4.027,5.02v3.708h19.777v-3.708A5.11,5.11,0,0,0-1677.6,2933.533Zm-2.746.2-.6,2.716-1.867-1.331,1.832-1.525Zm-3.115.894-1.978-1.648v-.646a4.725,4.725,0,0,0,1.978.436,4.72,4.72,0,0,0,1.977-.436v.646Zm-4.747-10.163v2.435a4.957,4.957,0,0,1-.791-2.7v-.65a5,5,0,0,1,1.939-3.967,5.05,5.05,0,0,1,3.085-1.057h.665a4.165,4.165,0,0,1,3.835,2.53l.1.239h.261a1.187,1.187,0,0,1,1.186,1.185v1.72a4.957,4.957,0,0,1-.791,2.7v-3.227h-.552a2.265,2.265,0,0,1-1.887-1.01l-.118-.178h-.832l-.115.194a3.7,3.7,0,0,1-3.153,1.786Zm.791,3.559v-2.77h2.045a4.5,4.5,0,0,0,3.7-1.959,3.061,3.061,0,0,0,2.168,1.16v3.569a3.96,3.96,0,0,1-3.955,3.956A3.96,3.96,0,0,1-1687.416,2928.021Zm1.478,5.57,1.831,1.525-1.866,1.333-.6-2.718Zm.927,7.879h-3.592v-1.584h-.79v1.584h-3.165v-2.917a4.323,4.323,0,0,1,3.407-4.247l1.8-.4.863,3.884,1.367-.976.457.457Zm2.308,0h-1.514l.375-4.5-.624-.623,1.006-.72,1.005.72-.624.623Zm8.34,0h-3.164v-1.584h-.791v1.584h-3.592l-.35-4.2.457-.457,1.368.976.863-3.884,1.8.4a4.323,4.323,0,0,1,3.407,4.247Z"/>
    </g>
</svg>